{
  "meta": {
    "title": "Fiona’s daily news",
    "description": "",
    "avatar": "/static/1cc244bd82aaa09e1790973445f450bf.jpg",
    "totalPosts": 621,
    "totalPages": 32,
    "currentPage": 11,
    "pageSize": 20,
    "hasNextPage": true,
    "hasPrevPage": true,
    "nextPageUrl": "latest-220.json",
    "prevPageUrl": "latest-180.json"
  },
  "data": [
    {
      "id": "446",
      "title": "休息结束🔚",
      "type": "text",
      "datetime": "2025-11-27T12:47:40+00:00",
      "tags": [],
      "text": "休息结束🔚",
      "content": "休息结束<i class=\"emoji\"><b>🔚</b></i>",
      "reactions": [
        {
          "emoji": "❤️",
          "count": "54",
          "isPaid": false
        },
        {
          "emoji": "👏",
          "count": "12",
          "isPaid": false
        },
        {
          "emoji": "👍",
          "count": "7",
          "isPaid": false
        },
        {
          "emoji": "🔥",
          "count": "4",
          "isPaid": false
        }
      ]
    },
    {
      "id": "445",
      "title": "存储进入超级周期？NAND大爆发之夜 ",
      "type": "text",
      "datetime": "2025-11-12T09:28:02+00:00",
      "tags": [],
      "text": "存储进入超级周期？NAND大爆发之夜 https://x.com/nft_hu/status/1988539054997295258",
      "content": "存储进入超级周期？NAND大爆发之夜 <a href=\"https://x.com/nft_hu/status/1988539054997295258\" target=\"_blank\" rel=\"noopener\" title=\"https://x.com/nft_hu/status/1988539054997295258\">https://x.com/nft_hu/status/1988539054997295258</a><a class=\"tgme_widget_message_link_preview\" href=\"https://x.com/nft_hu/status/1988539054997295258\" target=\"_blank\" rel=\"noopener\" title=\"芯片狂潮向存储蔓延，美光新高，闪迪暴涨，NAND涨价...等接连占据新闻头条。虽然太多太多人鼓吹记忆体超级牛市通常是顶部标志，虽然确实有很多行业冥灯买入记忆体股票。但是作为一个永远在学习的平民，了解一下“记忆体”是什么？ NAND Flash和DRAM 又究竟都是什么？最近说的减产涨价又是为什么？\">\n  <i class=\"link_preview_right_image\" style=\"background-image:url('/static/4dcae8eb269816f655817799f86992eb.jpg')\"></i>\n  <div class=\"link_preview_site_name accent_color\" dir=\"auto\">X (formerly Twitter)</div>\n  \n  <div class=\"link_preview_title\" dir=\"auto\">Fiona <i class=\"emoji\" style=\"background-image:url('/static/629c485827daf0b8d569a3c46148faad.png')\"><b>❤️</b></i>&amp; <i class=\"emoji\" style=\"background-image:url('/static/8f22df3f7377963bbd007e61b97b65f0.png')\"><b>✌️</b></i> (@nft_hu) on X</div>\n  <div class=\"link_preview_description\" dir=\"auto\">芯片狂潮向存储蔓延，美光新高，闪迪暴涨，NAND涨价...等接连占据新闻头条。<br><br>虽然太多太多人鼓吹记忆体超级牛市通常是顶部标志，虽然确实有很多行业冥灯买入记忆体股票。但是作为一个永远在学习的平民，了解一下“记忆体”是什么？ NAND Flash和DRAM 又究竟都是什么？最近说的减产涨价又是为什么？</div>\n</a>",
      "reactions": [
        {
          "emoji": "❤️",
          "count": "9",
          "isPaid": false
        }
      ]
    },
    {
      "id": "444",
      "title": "光通讯第一篇 ",
      "type": "text",
      "datetime": "2025-11-11T02:46:47+00:00",
      "tags": [],
      "text": "光通讯第一篇 https://x.com/nft_hu/status/1988075814794260886",
      "content": "光通讯第一篇 <a href=\"https://x.com/nft_hu/status/1988075814794260886\" target=\"_blank\" rel=\"noopener\" title=\"https://x.com/nft_hu/status/1988075814794260886\">https://x.com/nft_hu/status/1988075814794260886</a><a class=\"tgme_widget_message_link_preview\" href=\"https://x.com/nft_hu/status/1988075814794260886\" target=\"_blank\" rel=\"noopener\" title=\"今天想来写一下 光通讯 （Optical Communication），受到 @woodycryptow 和 @xingpt 对话中的启发。什么是光通讯？他和传统@woodycryptow 和 @xingpt 对话中的启发。第一次研究这个赛道，欢迎指正。1️⃣什么是光通讯？他和传统的通讯有什么不同？光通讯通常依靠光纤来传输数据，速度快、损耗小。\">\n  <i class=\"link_preview_right_image\" style=\"background-image:url('/static/a81be4d98a3a0ed4b181738893021da5.jpg')\"></i>\n  <div class=\"link_preview_site_name accent_color\" dir=\"auto\">X (formerly Twitter)</div>\n  \n  <div class=\"link_preview_title\" dir=\"auto\">Fiona <i class=\"emoji\" style=\"background-image:url('/static/629c485827daf0b8d569a3c46148faad.png')\"><b>❤️</b></i>&amp; <i class=\"emoji\" style=\"background-image:url('/static/8f22df3f7377963bbd007e61b97b65f0.png')\"><b>✌️</b></i> (@nft_hu) on X</div>\n  <div class=\"link_preview_description\" dir=\"auto\">今天想来写一下 光通讯 （Optical Communication），受到 @woodycryptow 和 @xingpt 对话中的启发。什么是光通讯？他和传统@woodycryptow 和 @xingpt 对话中的启发。第一次研究这个赛道，欢迎指正。<br><br><i class=\"emoji\" style=\"background-image:url('/static/17424555f3e437c96831adfecd4b86be.png')\"><b>1️⃣</b></i>什么是光通讯？他和传统的通讯有什么不同？<br>光通讯通常依靠光纤来传输数据，速度快、损耗小。</div>\n</a>",
      "reactions": [
        {
          "emoji": "❤️",
          "count": "9",
          "isPaid": false
        }
      ]
    },
    {
      "id": "443",
      "title": "很久没看财库的数据了，毕竟在我眼中这个叙事也死了有一阵子了",
      "type": "text",
      "datetime": "2025-11-05T00:56:17+00:00",
      "tags": [],
      "text": "很久没看财库的数据了，毕竟在我眼中这个叙事也死了有一阵子了。所有的叙事 都是有保质期的。从追逐特朗普家族买什么，到看DAT买什么，到BSC群魔乱舞，最近的隐私概念又兴起。像一层叠一层的海浪，新浪来时，旧潮退却。$BMNR 和 $SBET 的MNAV都跌在1以下了。这是底部标志之一。但我并没有任何购买欲望。在这个被抽干的水池里，做一条不乱扑腾的鱼或许可以苟活久一点。底部是一个区间，只是不知道他是一周，一个月，抑或一年。以己度人，我的信心还没有归来。信心比黄金还贵。",
      "content": "很久没看财库的数据了，毕竟在我眼中这个叙事也死了有一阵子了。<br><br>所有的叙事 都是有保质期的。从追逐特朗普家族买什么，到看DAT买什么，到BSC群魔乱舞，最近的隐私概念又兴起。<br><br>像一层叠一层的海浪，新浪来时，旧潮退却。<br><br>$BMNR 和 $SBET 的MNAV都跌在1以下了。这是底部标志之一。但我并没有任何购买欲望。在这个被抽干的水池里，做一条不乱扑腾的鱼或许可以苟活久一点。<br><br>底部是一个区间，只是不知道他是一周，一个月，抑或一年。<br><br>以己度人，我的信心还没有归来。信心比黄金还贵。",
      "reactions": [
        {
          "emoji": "👍",
          "count": "63",
          "isPaid": false
        },
        {
          "emoji": "❤️",
          "count": "7",
          "isPaid": false
        },
        {
          "emoji": "😁",
          "count": "3",
          "isPaid": false
        },
        {
          "emoji": "💩",
          "count": "3",
          "isPaid": false
        },
        {
          "emoji": "🥰",
          "count": "2",
          "isPaid": false
        }
      ]
    },
    {
      "id": "441",
      "title": "Gaib 算力➕机器人 ",
      "type": "text",
      "datetime": "2025-10-17T09:59:55+00:00",
      "tags": [],
      "text": "Gaib 算力➕机器人 https://x.com/nft_hu/status/1978640897140314263?s=46",
      "content": "Gaib 算力<i class=\"emoji\"><b>➕</b></i>机器人 <a href=\"https://x.com/nft_hu/status/1978640897140314263?s=46\" target=\"_blank\" rel=\"noopener\" title=\"https://x.com/nft_hu/status/1978640897140314263?s=46\">https://x.com/nft_hu/status/1978640897140314263?s=46</a><a class=\"tgme_widget_message_link_preview\" href=\"https://x.com/nft_hu/status/1978640897140314263?s=46\" target=\"_blank\" rel=\"noopener\" title=\"写人形机器人一年了，之前港股写过关联的很多股票（类似优必选，宁德时代）涨疯了。当然大行情好也是很大的一个原因。“具身智能（Embodied AI）”是AI最火的新方向，也是资金不断流入的赛道。Embodied AI指的是将AI\">\n  <i class=\"link_preview_right_image\" style=\"background-image:url('/static/31b227fc7abfa2817caeefba81a2cfca.jpg')\"></i>\n  <div class=\"link_preview_site_name accent_color\" dir=\"auto\">X (formerly Twitter)</div>\n  \n  <div class=\"link_preview_title\" dir=\"auto\">Fiona <i class=\"emoji\" style=\"background-image:url('/static/629c485827daf0b8d569a3c46148faad.png')\"><b>❤️</b></i>&amp; <i class=\"emoji\" style=\"background-image:url('/static/8f22df3f7377963bbd007e61b97b65f0.png')\"><b>✌️</b></i> (@nft_hu) on X</div>\n  <div class=\"link_preview_description\" dir=\"auto\">写人形机器人一年了，之前港股写过关联的很多股票（类似优必选，宁德时代）涨疯了。当然大行情好也是很大的一个原因。<br><br>“具身智能（Embodied AI）”是AI最火的新方向，也是资金不断流入的赛道。Embodied AI指的是将AI</div>\n</a>",
      "reactions": [
        {
          "emoji": "🔥",
          "count": "7",
          "isPaid": false
        },
        {
          "emoji": "❤️",
          "count": "2",
          "isPaid": false
        },
        {
          "emoji": "🥰",
          "count": "1",
          "isPaid": false
        }
      ]
    },
    {
      "id": "440",
      "title": "最近关于铜价的看法 ",
      "type": "text",
      "datetime": "2025-10-17T00:11:02+00:00",
      "tags": [],
      "text": "最近关于铜价的看法 https://x.com/nft_hu/status/1978969333213663443?s=46",
      "content": "最近关于铜价的看法 <a href=\"https://x.com/nft_hu/status/1978969333213663443?s=46\" target=\"_blank\" rel=\"noopener\" title=\"https://x.com/nft_hu/status/1978969333213663443?s=46\">https://x.com/nft_hu/status/1978969333213663443?s=46</a><a class=\"tgme_widget_message_link_preview\" href=\"https://x.com/nft_hu/status/1978969333213663443?s=46\" target=\"_blank\" rel=\"noopener\" title=\"现在对铜价走势也是分歧很大。有说供大于求，高价铜中国买家马上不买了; 也有持续看好认为新能源 AI电网都离不开铜，铜不够会涨破11000美元每吨🧐\">\n  <i class=\"link_preview_right_image\" style=\"background-image:url('/static/f73354123d87c21e0cc9371f30ecccac.jpg')\"></i>\n  <div class=\"link_preview_site_name accent_color\" dir=\"auto\">X (formerly Twitter)</div>\n  \n  <div class=\"link_preview_title\" dir=\"auto\">Fiona <i class=\"emoji\" style=\"background-image:url('/static/629c485827daf0b8d569a3c46148faad.png')\"><b>❤️</b></i>&amp; <i class=\"emoji\" style=\"background-image:url('/static/8f22df3f7377963bbd007e61b97b65f0.png')\"><b>✌️</b></i> (@nft_hu) on X</div>\n  <div class=\"link_preview_description\" dir=\"auto\">现在对铜价走势也是分歧很大。<br>有说供大于求，高价铜中国买家马上不买了; 也有持续看好认为新能源 AI电网都离不开铜，铜不够会涨破11000美元每吨<i class=\"emoji\" style=\"background-image:url('/static/7ae7000e41d4bbfcb3e45c2b050b22aa.png')\"><b>🧐</b></i></div>\n</a>",
      "reactions": [
        {
          "emoji": "👍",
          "count": "6",
          "isPaid": false
        },
        {
          "emoji": "🏆",
          "count": "1",
          "isPaid": false
        }
      ]
    },
    {
      "id": "439",
      "title": "今日数据：1️⃣华尔街恐惧与贪婪指数跌至23，为4月末以来首次跌至极度恐惧区域，美盘初为35",
      "type": "text",
      "datetime": "2025-10-16T20:53:08+00:00",
      "tags": [],
      "text": "今日数据：1️⃣华尔街恐惧与贪婪指数跌至23，为4月末以来首次跌至极度恐惧区域，美盘初为35。2️⃣VIX收于25.31，创4月24日以来最高收盘水平。3️⃣三大股指集体收跌 金龙指数跌近1%4️⃣纽约期金日内大涨3.00%，现报4328.00美元/盎司。5️⃣美国10年期国债收益率跌穿4%整数心理关口，为4月以来首次",
      "content": "今日数据：<br><i class=\"emoji\"><b>1️⃣</b></i>华尔街恐惧与贪婪指数跌至23，为4月末以来首次跌至极度恐惧区域，美盘初为35。<br><i class=\"emoji\"><b>2️⃣</b></i>VIX收于25.31，创4月24日以来最高收盘水平。<br><i class=\"emoji\"><b>3️⃣</b></i>三大股指集体收跌 金龙指数跌近1%<br><i class=\"emoji\"><b>4️⃣</b></i>纽约期金日内大涨3.00%，现报4328.00美元/盎司。<br><i class=\"emoji\"><b>5️⃣</b></i>美国10年期国债收益率跌穿4%整数心理关口，为4月以来首次",
      "reactions": [
        {
          "emoji": "❤️",
          "count": "23",
          "isPaid": false
        }
      ]
    },
    {
      "id": "438",
      "title": "随着比特币又一次轻松的跌破了11w关口，和我近日缓和的情绪之下的思考，分享我对于当下行情的一点感受",
      "type": "text",
      "datetime": "2025-10-16T20:22:06+00:00",
      "tags": [],
      "text": "随着比特币又一次轻松的跌破了11w关口，和我近日缓和的情绪之下的思考，分享我对于当下行情的一点感受。首先，短期不看大反弹。10月11日的极限插针和大额爆仓除了让少数机构和人赚到了钱，对于整个市场的伤害是巨大的。从机构到个人，都被血洗。大家除了资金蒙受相当大的损失，心气的损伤更为致命。对于山寨和CEX，最后一层遮羞布也撕下了。今年以来，一个疑问一直萦绕在我脑海中：“币圈的风险和收益似真的还成正相关么？”。 信心是金，流动性也是金，而短期内，这两点似乎都消失了。这种情况下保持现有价格震荡就很不错了，更有可能的是，脆弱的盘面随着某个/些风险事件而击穿。DAT的故事讲到尽头。6月开启的新叙事也讲到结尾了。Tom Lee 作为核心DAT概念人物，在最近的发言中，也表示了： DATs泡沫“已破”警告。他认为以持有大额加密资产（如 ETH /BTC）作为公司国库资产的模式，其估值逻辑正受到严重怀疑。部分这类公司现在的市值甚至低于其所持加密资产价值。他把这称为一个清晰的信号：这种“把加密资产当国库资产”的游戏开始崩裂了。虽然他还是奶了一下自己的bag $ETH 会到新高，但是懂得都懂。宏观的干扰因素也不少：美国政府关门，美中关系紧张，世界多地仍深陷战争泥潭，美股高位的回调隐忧。而唯一确定的利好只有降息。盘面是脆弱的，而世界是走向动荡和分裂的。",
      "content": "随着比特币又一次轻松的跌破了11w关口，和我近日缓和的情绪之下的思考，分享我对于当下行情的一点感受。<br><br>首先，短期不看大反弹。10月11日的极限插针和大额爆仓除了让少数机构和人赚到了钱，对于整个市场的伤害是巨大的。从机构到个人，都被血洗。大家除了资金蒙受相当大的损失，心气的损伤更为致命。对于山寨和CEX，最后一层遮羞布也撕下了。<br><br>今年以来，一个疑问一直萦绕在我脑海中：“币圈的风险和收益似真的还成正相关么？”。 信心是金，流动性也是金，而短期内，这两点似乎都消失了。<br><br>这种情况下保持现有价格震荡就很不错了，更有可能的是，脆弱的盘面随着某个/些风险事件而击穿。<br><br>DAT的故事讲到尽头。6月开启的新叙事也讲到结尾了。Tom Lee 作为核心DAT概念人物，在最近的发言中，也表示了： DATs泡沫“已破”警告。<br><br>他认为以持有大额加密资产（如 ETH /BTC）作为公司国库资产的模式，其估值逻辑正受到严重怀疑。部分这类公司现在的市值甚至低于其所持加密资产价值。<br>他把这称为一个清晰的信号：这种“把加密资产当国库资产”的游戏开始崩裂了。<br><br>虽然他还是奶了一下自己的bag $ETH 会到新高，但是懂得都懂。<br><br>宏观的干扰因素也不少：美国政府关门，美中关系紧张，世界多地仍深陷战争泥潭，美股高位的回调隐忧。而唯一确定的利好只有降息。盘面是脆弱的，而世界是走向动荡和分裂的。",
      "reactions": [
        {
          "emoji": "❤️",
          "count": "34",
          "isPaid": false
        },
        {
          "emoji": "🏆",
          "count": "1",
          "isPaid": false
        }
      ]
    },
    {
      "id": "437",
      "title": "目前的计划:1️⃣出金 场内的钱特别容易买回去，留2成现金给生活",
      "type": "text",
      "datetime": "2025-10-14T06:22:29+00:00",
      "tags": [],
      "text": "目前的计划:1️⃣出金 场内的钱特别容易买回去，留2成现金给生活。2️⃣股票5成资金，BTC 3成。3️⃣休息一阵子。4️⃣未来投资选择转向防御型，多看少出手。",
      "content": "目前的计划:<br><i class=\"emoji\"><b>1️⃣</b></i>出金 场内的钱特别容易买回去，留2成现金给生活。<br><i class=\"emoji\"><b>2️⃣</b></i>股票5成资金，BTC 3成。<br><i class=\"emoji\"><b>3️⃣</b></i>休息一阵子。<br><i class=\"emoji\"><b>4️⃣</b></i>未来投资选择转向防御型，多看少出手。",
      "reactions": [
        {
          "emoji": "🥰",
          "count": "66",
          "isPaid": false
        },
        {
          "emoji": "❤️",
          "count": "24",
          "isPaid": false
        },
        {
          "emoji": "👍",
          "count": "14",
          "isPaid": false
        },
        {
          "emoji": "👏",
          "count": "2",
          "isPaid": false
        },
        {
          "emoji": "🎉",
          "count": "2",
          "isPaid": false
        }
      ]
    },
    {
      "id": "436",
      "title": "爆仓了一次，上一次爆仓是FTX了",
      "type": "text",
      "datetime": "2025-10-10T23:24:26+00:00",
      "tags": [],
      "text": "爆仓了一次，上一次爆仓是FTX了。我甚至一直认为我的两倍三倍杠杆基本等于现货，没啥爆仓风险。好久没被市场教育了，已经几乎忘了曾经有多疼。这次清算规模之大，针之深，我想很多像我一样低杠杆的交易员也很难幸免。在可能的极限行情下，空仓或者现货是最好的选择。唯一庆幸的是狡兔三窟，每个地方都留了一点钱，还可以重新出发。消化情绪，解决问题。活着就问题不大。",
      "content": "爆仓了一次，上一次爆仓是FTX了。<br>我甚至一直认为我的两倍三倍杠杆基本等于现货，没啥爆仓风险。好久没被市场教育了，已经几乎忘了曾经有多疼。这次清算规模之大，针之深，我想很多像我一样低杠杆的交易员也很难幸免。<br>在可能的极限行情下，空仓或者现货是最好的选择。<br>唯一庆幸的是狡兔三窟，每个地方都留了一点钱，还可以重新出发。<br>消化情绪，解决问题。活着就问题不大。",
      "reactions": [
        {
          "emoji": "❤️",
          "count": "118",
          "isPaid": false
        },
        {
          "emoji": "😭",
          "count": "19",
          "isPaid": false
        },
        {
          "emoji": "👍",
          "count": "14",
          "isPaid": false
        },
        {
          "emoji": "🙏",
          "count": "10",
          "isPaid": false
        },
        {
          "emoji": "🎉",
          "count": "5",
          "isPaid": false
        }
      ]
    },
    {
      "id": "435",
      "title": "抱抱自己也抱抱朋友",
      "type": "text",
      "datetime": "2025-10-10T23:13:02+00:00",
      "tags": [],
      "text": "抱抱自己也抱抱朋友",
      "content": "抱抱自己也抱抱朋友",
      "reactions": [
        {
          "emoji": "❤️",
          "count": "46",
          "isPaid": false
        },
        {
          "emoji": "👍",
          "count": "5",
          "isPaid": false
        },
        {
          "emoji": "🫡",
          "count": "4",
          "isPaid": false
        }
      ]
    },
    {
      "id": "434",
      "title": "极限行情，下跌的幅度和上涨的幅度都会超过你的想象",
      "type": "text",
      "datetime": "2025-10-10T23:12:43+00:00",
      "tags": [],
      "text": "极限行情，下跌的幅度和上涨的幅度都会超过你的想象。很多时候第一波暴跌后会反弹，但相当有可能还有第二波下跌。没关系的，活着就有机会。",
      "content": "极限行情，下跌的幅度和上涨的幅度都会超过你的想象。<br>很多时候第一波暴跌后会反弹，但相当有可能还有第二波下跌。<br>没关系的，活着就有机会。",
      "reactions": [
        {
          "emoji": "👍",
          "count": "34",
          "isPaid": false
        },
        {
          "emoji": "❤️",
          "count": "3",
          "isPaid": false
        }
      ]
    },
    {
      "id": "433",
      "title": "DB: *NASDAQ 100 EXTENDS DECLINE TO 2.4%, S&P 500 FALLS 1.7%DB: 纳斯达克100指数跌幅扩大至2.4%，标普500指数下跌1.7%————————————2025-10-10 23:35:10",
      "type": "text",
      "datetime": "2025-10-10T15:42:30+00:00",
      "tags": [],
      "text": "DB: *NASDAQ 100 EXTENDS DECLINE TO 2.4%, S&P 500 FALLS 1.7%DB: 纳斯达克100指数跌幅扩大至2.4%，标普500指数下跌1.7%————————————2025-10-10 23:35:10",
      "content": "<b>DB: *NASDAQ 100 EXTENDS DECLINE TO 2.4%, S&amp;P 500 FALLS 1.7%</b><br><br>DB: 纳斯达克100指数跌幅扩大至2.4%，标普500指数下跌1.7%<br><br>————————————<br>2025-10-10 23:35:10",
      "reactions": []
    },
    {
      "id": "432",
      "title": "美股最近讲的不多，不喜欢重复反反复复说相似的内容，但是大多数其实走的不错",
      "type": "text",
      "datetime": "2025-10-10T14:10:15+00:00",
      "tags": [],
      "text": "美股最近讲的不多，不喜欢重复反反复复说相似的内容，但是大多数其实走的不错。Coreweave  $CRWV 从95-149联合健康 $UNH 从250-364$GLXY 25-43$SOFI 从24-29$HOOD 100-152$PLTR 130-180之前写过的推文，确实美股更适合长期投资https://x.com/nft_hu/status/1943203998456254532https://x.com/nft_hu/status/1923187312823001171https://x.com/nft_hu/status/1943577062545199579https://x.com/nft_hu/status/1525110986398584833似乎都是简单模式",
      "content": "美股最近讲的不多，不喜欢重复反反复复说相似的内容，但是大多数其实走的不错。<br>Coreweave  $CRWV 从95-149<br>联合健康 $UNH 从250-364<br>$GLXY 25-43<br>$SOFI 从24-29<br>$HOOD 100-152<br>$PLTR 130-180<br><br>之前写过的推文，确实美股更适合长期投资<br><a href=\"https://x.com/nft_hu/status/1943203998456254532\" target=\"_blank\" rel=\"noopener\" title=\"https://x.com/nft_hu/status/1943203998456254532\">https://x.com/nft_hu/status/1943203998456254532</a><br><a href=\"https://x.com/nft_hu/status/1923187312823001171\" target=\"_blank\" rel=\"noopener\" title=\"https://x.com/nft_hu/status/1923187312823001171\">https://x.com/nft_hu/status/1923187312823001171</a><br><a href=\"https://x.com/nft_hu/status/1943577062545199579\" target=\"_blank\" rel=\"noopener\" title=\"https://x.com/nft_hu/status/1943577062545199579\">https://x.com/nft_hu/status/1943577062545199579</a><br><a href=\"https://x.com/nft_hu/status/1525110986398584833\" target=\"_blank\" rel=\"noopener\" title=\"https://x.com/nft_hu/status/1525110986398584833\">https://x.com/nft_hu/status/1525110986398584833</a><br><br>似乎都是简单模式<a class=\"tgme_widget_message_link_preview\" href=\"https://x.com/nft_hu/status/1943203998456254532\" target=\"_blank\" rel=\"noopener\" title=\"从这篇文开启一个新的频道：101个股票标的会介绍一些我看好/持有/研究中的美股标的，不构成投资建议，因为很多股票都在历史高位，美股的波动性也很大。但是希望这个系列可以帮助我和大家一起找到更多好的公司，多一个理解和看世界的角度。今天要介绍的是 Palantir $PLTR\">\n  <i class=\"link_preview_right_image\" style=\"background-image:url('/static/da2e7ea890033db18bdc3f0a9dc91751.jpg')\"></i>\n  <div class=\"link_preview_site_name accent_color\" dir=\"auto\">X (formerly Twitter)</div>\n  \n  <div class=\"link_preview_title\" dir=\"auto\">Fiona <i class=\"emoji\" style=\"background-image:url('/static/629c485827daf0b8d569a3c46148faad.png')\"><b>❤️</b></i>&amp; <i class=\"emoji\" style=\"background-image:url('/static/8f22df3f7377963bbd007e61b97b65f0.png')\"><b>✌️</b></i> (@nft_hu) on X</div>\n  <div class=\"link_preview_description\" dir=\"auto\">从这篇文开启一个新的频道：101个股票标的<br><br>会介绍一些我看好/持有/研究中的美股标的，不构成投资建议，因为很多股票都在历史高位，美股的波动性也很大。但是希望这个系列可以帮助我和大家一起找到更多好的公司，多一个理解和看世界的角度。<br><br>今天要介绍的是 Palantir $PLTR</div>\n</a>",
      "reactions": [
        {
          "emoji": "❤️",
          "count": "10",
          "isPaid": false
        }
      ]
    },
    {
      "id": "431",
      "title": "今年以来，我的交易体系和行情有一个冲突点: 持续性和交易时间长度",
      "type": "text",
      "datetime": "2025-10-10T08:07:52+00:00",
      "tags": [],
      "text": "今年以来，我的交易体系和行情有一个冲突点: 持续性和交易时间长度。我通常喜欢持有一个标的稍微久一点的时间，大概是1个月上下。但是今年的行情持续性很差，基本1周附近就会出现转折，山寨更是很多2.3天就结束。所以我很多标的买点都很好，卖的很差。币圈今年的行情更加鼓励paper hand（BTC holder除外) ，频繁的换手交易似乎才是生存方式。这和美股其实非常不同，我现在在更适配不同市场不同的交易频次。希望可以进化成功而不是变成精神分裂。",
      "content": "今年以来，我的交易体系和行情有一个冲突点: 持续性和交易时间长度。我通常喜欢持有一个标的稍微久一点的时间，大概是1个月上下。<br>但是今年的行情持续性很差，基本1周附近就会出现转折，山寨更是很多2.3天就结束。<br>所以我很多标的买点都很好，卖的很差。币圈今年的行情更加鼓励paper hand（BTC holder除外) ，频繁的换手交易似乎才是生存方式。<br><br>这和美股其实非常不同，我现在在更适配不同市场不同的交易频次。希望可以进化成功而不是变成精神分裂。",
      "reactions": [
        {
          "emoji": "👍",
          "count": "47",
          "isPaid": false
        },
        {
          "emoji": "😭",
          "count": "6",
          "isPaid": false
        },
        {
          "emoji": "🔥",
          "count": "3",
          "isPaid": false
        },
        {
          "emoji": "❤️",
          "count": "2",
          "isPaid": false
        },
        {
          "emoji": "👏",
          "count": "2",
          "isPaid": false
        }
      ]
    },
    {
      "id": "430",
      "title": "MNT巨大的利润消失了，现在还持有原来的仓位",
      "type": "text",
      "datetime": "2025-10-10T08:03:09+00:00",
      "tags": [],
      "text": "MNT巨大的利润消失了，现在还持有原来的仓位。需要问几个问题:1️⃣看好接下来的大盘呢？2️⃣MNT的基本面好么？有变化呢？3️⃣现在谁在卖？这部分卖盘可以被消化么？4️⃣Bybit做好MNT的决心和预算究竟有多少。",
      "content": "MNT巨大的利润消失了，现在还持有原来的仓位。需要问几个问题:<br><i class=\"emoji\"><b>1️⃣</b></i>看好接下来的大盘呢？<br><i class=\"emoji\"><b>2️⃣</b></i>MNT的基本面好么？有变化呢？<br><i class=\"emoji\"><b>3️⃣</b></i>现在谁在卖？这部分卖盘可以被消化么？<br><i class=\"emoji\"><b>4️⃣</b></i>Bybit做好MNT的决心和预算究竟有多少。",
      "reactions": [
        {
          "emoji": "❤️",
          "count": "11",
          "isPaid": false
        },
        {
          "emoji": "👍",
          "count": "3",
          "isPaid": false
        }
      ]
    },
    {
      "id": "429",
      "title": "MNT 彻底舒服",
      "type": "text",
      "datetime": "2025-10-09T00:53:11+00:00",
      "tags": [],
      "text": "MNT 彻底舒服",
      "content": "MNT 彻底舒服",
      "reactions": [
        {
          "emoji": "❤️",
          "count": "19",
          "isPaid": false
        }
      ]
    },
    {
      "id": "428",
      "title": "旅游中没时间冲meme，选择买了BNB",
      "type": "text",
      "datetime": "2025-10-08T06:30:27+00:00",
      "tags": [],
      "text": "旅游中没时间冲meme，选择买了BNB",
      "content": "旅游中没时间冲meme，选择买了BNB",
      "reactions": [
        {
          "emoji": "❤‍🔥",
          "count": "14",
          "isPaid": false
        },
        {
          "emoji": "❤️",
          "count": "2",
          "isPaid": false
        }
      ]
    },
    {
      "id": "427",
      "title": "表扬一下 紫金黄金，随着黄金突破4000，他的股价也是一冲不回头",
      "type": "text",
      "datetime": "2025-10-08T03:38:47+00:00",
      "tags": [],
      "text": "表扬一下 紫金黄金，随着黄金突破4000，他的股价也是一冲不回头",
      "content": "<div class=\"image-list-container image-list-odd\">\n      <button class=\"image-preview-button image-preview-wrap\" popovertarget=\"modal-427-0\" popovertargetaction=\"show\">\n        <img src=\"/static/92b3aebd90c46ce5090ad215a472ade7.jpg\" alt=\"表扬一下 紫金黄金，随着黄金突破4000，他的股价也是一冲不回头\" loading=\"lazy\" />\n      </button>\n      <button class=\"image-preview-button modal\" id=\"modal-427-0\" popovertarget=\"modal-427-0\" popovertargetaction=\"hide\" popover>\n        <img class=\"modal-img\" src=\"/static/92b3aebd90c46ce5090ad215a472ade7.jpg\" alt=\"表扬一下 紫金黄金，随着黄金突破4000，他的股价也是一冲不回头\" loading=\"lazy\" />\n      </button>\n    </div>表扬一下 紫金黄金，随着黄金突破4000，他的股价也是一冲不回头",
      "reactions": [
        {
          "emoji": "👍",
          "count": "19",
          "isPaid": false
        },
        {
          "emoji": "❤️",
          "count": "1",
          "isPaid": false
        }
      ]
    },
    {
      "id": "426",
      "title": "铜选股～看多铜价",
      "type": "text",
      "datetime": "2025-10-07T14:18:38+00:00",
      "tags": [],
      "text": "铜选股～看多铜价",
      "content": "<div class=\"image-list-container image-list-odd\">\n      <button class=\"image-preview-button image-preview-wrap\" popovertarget=\"modal-426-0\" popovertargetaction=\"show\">\n        <img src=\"/static/d3d5e6f263f1aa46af3ed9789e0b0562.jpg\" alt=\"铜选股～看多铜价\" loading=\"lazy\" />\n      </button>\n      <button class=\"image-preview-button modal\" id=\"modal-426-0\" popovertarget=\"modal-426-0\" popovertargetaction=\"hide\" popover>\n        <img class=\"modal-img\" src=\"/static/d3d5e6f263f1aa46af3ed9789e0b0562.jpg\" alt=\"铜选股～看多铜价\" loading=\"lazy\" />\n      </button>\n    </div>铜选股～看多铜价",
      "reactions": [
        {
          "emoji": "❤️",
          "count": "19",
          "isPaid": false
        },
        {
          "emoji": "🔥",
          "count": "4",
          "isPaid": false
        }
      ]
    }
  ]
}