{
  "meta": {
    "title": "Fiona’s daily news",
    "description": "",
    "avatar": "/static/2deaf0ca918295676d69d149b6f4a9ec.jpg",
    "totalPosts": 577,
    "totalPages": 29,
    "currentPage": 14,
    "pageSize": 20,
    "hasNextPage": true,
    "hasPrevPage": true,
    "nextPageUrl": "latest-280.json",
    "prevPageUrl": "latest-240.json"
  },
  "data": [
    {
      "id": "338",
      "title": "合约都平了",
      "type": "text",
      "datetime": "2025-07-22T03:28:11+00:00",
      "tags": [],
      "text": "合约都平了",
      "content": "合约都平了",
      "reactions": [
        {
          "emoji": "👍",
          "count": "21",
          "isPaid": false
        },
        {
          "emoji": "🤔",
          "count": "4",
          "isPaid": false
        },
        {
          "emoji": "👏",
          "count": "3",
          "isPaid": false
        },
        {
          "emoji": "😨",
          "count": "3",
          "isPaid": false
        }
      ]
    },
    {
      "id": "337",
      "title": "SBET增发的担忧还在蔓延，一个市值29亿的公司如何融资60亿？今天写了一下我的理解，欢迎讨论 ",
      "type": "text",
      "datetime": "2025-07-21T09:58:39+00:00",
      "tags": [],
      "text": "SBET增发的担忧还在蔓延，一个市值29亿的公司如何融资60亿？今天写了一下我的理解，欢迎讨论 https://x.com/nft_hu/status/1947233912331309557",
      "content": "SBET增发的担忧还在蔓延，一个市值29亿的公司如何融资60亿？今天写了一下我的理解，欢迎讨论 <a href=\"https://x.com/nft_hu/status/1947233912331309557\" target=\"_blank\" rel=\"noopener\" title=\"https://x.com/nft_hu/status/1947233912331309557\">https://x.com/nft_hu/status/1947233912331309557</a><a class=\"tgme_widget_message_link_preview\" href=\"https://x.com/nft_hu/status/1947233912331309557\" target=\"_blank\" rel=\"noopener\" title=\"周五，SharpLink Gaming $SBET 迎来了大回调，从开盘高点39刀跌到29刀，回调幅度超过20%。背后的原因除了获利盘的离场，更多的其实和6月的下跌一下，是ATM（在市增发）额度从原先的 $1B 扩展至 $6B，准直接打破先前的稀释天花板，引发市场的担忧。关于这一点其实我之前的推文有解释过其中的原因：\">\n  <i class=\"link_preview_right_image\" style=\"background-image:url('/static/91b984a34c2428c33c720f640620d9a4.jpg')\"></i>\n  <div class=\"link_preview_site_name accent_color\" dir=\"auto\">X (formerly Twitter)</div>\n  \n  <div class=\"link_preview_title\" dir=\"auto\">Fiona <i class=\"emoji\" style=\"background-image:url('/static/629c485827daf0b8d569a3c46148faad.png')\"><b>❤️</b></i>&amp; <i class=\"emoji\" style=\"background-image:url('/static/8f22df3f7377963bbd007e61b97b65f0.png')\"><b>✌️</b></i> (@nft_hu) on X</div>\n  <div class=\"link_preview_description\" dir=\"auto\">周五，SharpLink Gaming $SBET 迎来了大回调，从开盘高点39刀跌到29刀，回调幅度超过20%。<br><br>背后的原因除了获利盘的离场，更多的其实和6月的下跌一下，是ATM（在市增发）额度从原先的 $1B 扩展至 $6B，准直接打破先前的稀释天花板，引发市场的担忧。<br><br>关于这一点其实我之前的推文有解释过其中的原因：</div>\n</a>",
      "reactions": [
        {
          "emoji": "👍",
          "count": "9",
          "isPaid": false
        }
      ]
    },
    {
      "id": "336",
      "title": "周末平多，从结果导向看是一个错误的决定",
      "type": "text",
      "datetime": "2025-07-21T08:40:14+00:00",
      "tags": [],
      "text": "周末平多，从结果导向看是一个错误的决定。但是从心理层面看是一个正确的决定。不要拿着会影响你睡觉的仓位，能睡得好，才能拿到你相信的那个结果。现在的行情很好，大家也都积极上杠杆，如果来一个稍大的回调，清算量也会很大。注意风险管理，注意杠杆率。我们一起等那个好结果",
      "content": "周末平多，从结果导向看是一个错误的决定。但是从心理层面看是一个正确的决定。<br><br>不要拿着会影响你睡觉的仓位，能睡得好，才能拿到你相信的那个结果。<br><br>现在的行情很好，大家也都积极上杠杆，如果来一个稍大的回调，清算量也会很大。注意风险管理，注意杠杆率。我们一起等那个好结果",
      "reactions": [
        {
          "emoji": "👏",
          "count": "14",
          "isPaid": false
        },
        {
          "emoji": "❤️",
          "count": "5",
          "isPaid": false
        },
        {
          "emoji": "👍",
          "count": "5",
          "isPaid": false
        }
      ]
    },
    {
      "id": "335",
      "title": "行情非常好，从BTC ETH扩展到了其他的山寨，无论是昨天爆拉的 $CFX  周末冲锋的 $DOGE 还是ENA PENGU这些近期强势币",
      "type": "text",
      "datetime": "2025-07-21T08:37:54+00:00",
      "tags": [],
      "text": "行情非常好，从BTC ETH扩展到了其他的山寨，无论是昨天爆拉的 $CFX  周末冲锋的 $DOGE 还是ENA PENGU这些近期强势币。这个时期我的策略有两个：1⃣拥抱强势币；2⃣趋势结束前不要轻易换仓。目前主要持仓 $BTC $ETH  小仓位 $HYPE $DOGE $SOL",
      "content": "行情非常好，从BTC ETH扩展到了其他的山寨，无论是昨天爆拉的 $CFX  周末冲锋的 $DOGE 还是ENA PENGU这些近期强势币。<br>这个时期我的策略有两个：<br><i class=\"emoji\"><b>1⃣</b></i>拥抱强势币；<i class=\"emoji\"><b>2⃣</b></i>趋势结束前不要轻易换仓。<br>目前主要持仓 $BTC $ETH  小仓位 $HYPE $DOGE $SOL",
      "reactions": [
        {
          "emoji": "👍",
          "count": "13",
          "isPaid": false
        },
        {
          "emoji": "🫡",
          "count": "3",
          "isPaid": false
        },
        {
          "emoji": "❤️",
          "count": "2",
          "isPaid": false
        }
      ]
    },
    {
      "id": "334",
      "title": "周末行情萎靡，平多了一些仓位",
      "type": "text",
      "datetime": "2025-07-19T14:41:08+00:00",
      "tags": [],
      "text": "周末行情萎靡，平多了一些仓位",
      "content": "周末行情萎靡，平多了一些仓位",
      "reactions": [
        {
          "emoji": "🫡",
          "count": "9",
          "isPaid": false
        },
        {
          "emoji": "😱",
          "count": "3",
          "isPaid": false
        },
        {
          "emoji": "🤷‍♂",
          "count": "2",
          "isPaid": false
        },
        {
          "emoji": "😭",
          "count": "2",
          "isPaid": false
        }
      ]
    },
    {
      "id": "333",
      "title": "Hype减仓 加仓ETH",
      "type": "text",
      "datetime": "2025-07-18T01:22:31+00:00",
      "tags": [],
      "text": "Hype减仓 加仓ETH",
      "content": "Hype减仓 加仓ETH",
      "reactions": [
        {
          "emoji": "👍",
          "count": "19",
          "isPaid": false
        },
        {
          "emoji": "🔥",
          "count": "3",
          "isPaid": false
        },
        {
          "emoji": "🐳",
          "count": "3",
          "isPaid": false
        },
        {
          "emoji": "❤️",
          "count": "1",
          "isPaid": false
        }
      ]
    },
    {
      "id": "332",
      "title": "Keep pumping $ETHPengu 换仓以太坊 这个决定简直绝了",
      "type": "text",
      "datetime": "2025-07-18T01:19:10+00:00",
      "tags": [],
      "text": "Keep pumping $ETHPengu 换仓以太坊 这个决定简直绝了",
      "content": "Keep pumping $ETH<br>Pengu 换仓以太坊 这个决定简直绝了",
      "reactions": [
        {
          "emoji": "🔥",
          "count": "21",
          "isPaid": false
        },
        {
          "emoji": "❤️",
          "count": "3",
          "isPaid": false
        },
        {
          "emoji": "⚡",
          "count": "2",
          "isPaid": false
        },
        {
          "emoji": "🦄",
          "count": "2",
          "isPaid": false
        }
      ]
    },
    {
      "id": "331",
      "title": "币股太多，大家谨慎选择",
      "type": "text",
      "datetime": "2025-07-17T14:48:20+00:00",
      "tags": [],
      "text": "币股太多，大家谨慎选择。我选择龙头。",
      "content": "币股太多，大家谨慎选择。我选择龙头。",
      "reactions": [
        {
          "emoji": "👍",
          "count": "19",
          "isPaid": false
        }
      ]
    },
    {
      "id": "330",
      "title": "BNB微策略 ",
      "type": "text",
      "datetime": "2025-07-17T13:48:32+00:00",
      "tags": [],
      "text": "BNB微策略 https://x.com/bruce_aiweb3/status/1945839274030682366?s=46",
      "content": "BNB微策略 <a href=\"https://x.com/bruce_aiweb3/status/1945839274030682366?s=46\" target=\"_blank\" rel=\"noopener\" title=\"https://x.com/bruce_aiweb3/status/1945839274030682366?s=46\">https://x.com/bruce_aiweb3/status/1945839274030682366?s=46</a><a class=\"tgme_widget_message_link_preview\" href=\"https://x.com/bruce_aiweb3/status/1945839274030682366?s=46\" target=\"_blank\" rel=\"noopener\" title=\"Windtree- A Deep Dive into the &quot;BNB MicroStrategy&quot; PlayA major capital markets play is unfolding. A Nasdaq-listed biotech firm, Windtree Therapeutics ( $WINT), is pivoting to become the FIRST-EVER NASDAQ-LISTED @binance  treasury vehicle. This isn't…\">\n  <i class=\"link_preview_right_image\" style=\"background-image:url('/static/4e2f1fa05c2627aac67cfcdc00876bed.jpg')\"></i>\n  <div class=\"link_preview_site_name accent_color\" dir=\"auto\">X (formerly Twitter)</div>\n  \n  <div class=\"link_preview_title\" dir=\"auto\">Bruce | AI &amp; Crypto Macro (@Bruceai) on X</div>\n  <div class=\"link_preview_description\" dir=\"auto\">Windtree- A Deep Dive into the \"BNB MicroStrategy\" Play<br><br>A major capital markets play is unfolding. <br><br>A Nasdaq-listed biotech firm, Windtree Therapeutics ( $WINT), is pivoting to become the FIRST-EVER NASDAQ-LISTED @binance  treasury vehicle. <br><br>This isn't…</div>\n</a>",
      "reactions": [
        {
          "emoji": "❤️",
          "count": "5",
          "isPaid": false
        }
      ]
    },
    {
      "id": "329",
      "title": "",
      "type": "text",
      "datetime": "2025-07-17T10:10:30+00:00",
      "tags": [],
      "text": "https://x.com/nft_hu/status/1945788127353921758",
      "content": "<a href=\"https://x.com/nft_hu/status/1945788127353921758\" target=\"_blank\" rel=\"noopener\" title=\"https://x.com/nft_hu/status/1945788127353921758\">https://x.com/nft_hu/status/1945788127353921758</a><a class=\"tgme_widget_message_link_preview\" href=\"https://x.com/nft_hu/status/1945788127353921758\" target=\"_blank\" rel=\"noopener\" title=\"Tether又印钱了所有信号都已集齐\">\n  <i class=\"link_preview_right_image\" style=\"background-image:url('/static/df533dec01bfec509c378202ecfb1d95.jpg')\"></i>\n  <div class=\"link_preview_site_name accent_color\" dir=\"auto\">X (formerly Twitter)</div>\n  \n  <div class=\"link_preview_title\" dir=\"auto\">Fiona <i class=\"emoji\" style=\"background-image:url('/static/629c485827daf0b8d569a3c46148faad.png')\"><b>❤️</b></i>&amp; <i class=\"emoji\" style=\"background-image:url('/static/8f22df3f7377963bbd007e61b97b65f0.png')\"><b>✌️</b></i> (@nft_hu) on X</div>\n  <div class=\"link_preview_description\" dir=\"auto\">Tether又印钱了<br>所有信号都已集齐</div>\n</a>",
      "reactions": [
        {
          "emoji": "❤️",
          "count": "3",
          "isPaid": false
        }
      ]
    },
    {
      "id": "328",
      "title": "最近一个月（7月初至今）ETF资金表现自7月以来，累计净流入约 22.7 亿美元，是ETF推出以来最强劲的表现",
      "type": "text",
      "datetime": "2025-07-17T09:06:12+00:00",
      "tags": [],
      "text": "最近一个月（7月初至今）ETF资金表现自7月以来，累计净流入约 22.7 亿美元，是ETF推出以来最强劲的表现。单周表现突出：7月7日至11日的一周净流入达 9.08 亿美元。单日流入创纪录：7月16日单日净流入高达 7.27 亿美元，为历史最高；其中 BlackRock 的 ETHA 一天就流入了约 4.99 亿美元。这一切是有意义的。",
      "content": "最近一个月（7月初至今）ETF资金表现<br>自7月以来，累计净流入约 22.7 亿美元，是ETF推出以来最强劲的表现。<br><br>单周表现突出：<br>7月7日至11日的一周净流入达 9.08 亿美元。<br><br>单日流入创纪录：<br>7月16日单日净流入高达 7.27 亿美元，为历史最高；<br>其中 BlackRock 的 ETHA 一天就流入了约 4.99 亿美元。<br><br>这一切是有意义的。",
      "reactions": [
        {
          "emoji": "❤️",
          "count": "8",
          "isPaid": false
        }
      ]
    },
    {
      "id": "327",
      "title": "对ETH积极看多，现在需要看的是ETF流入量，这一轮的叙事和资金和以往都不一样",
      "type": "text",
      "datetime": "2025-07-17T09:05:32+00:00",
      "tags": [],
      "text": "对ETH积极看多，现在需要看的是ETF流入量，这一轮的叙事和资金和以往都不一样。但是乐观中带着谨慎，毕竟美股在高位震荡，不知道下半年还有什么其他变数。",
      "content": "对ETH积极看多，现在需要看的是ETF流入量，这一轮的叙事和资金和以往都不一样。<br><br>但是乐观中带着谨慎，毕竟美股在高位震荡，不知道下半年还有什么其他变数。",
      "reactions": [
        {
          "emoji": "❤️",
          "count": "9",
          "isPaid": false
        },
        {
          "emoji": "💯",
          "count": "2",
          "isPaid": false
        }
      ]
    },
    {
      "id": "326",
      "title": "中国人的海外收入是否要征税，你需要知道这些 ",
      "type": "text",
      "datetime": "2025-07-16T20:27:38+00:00",
      "tags": [],
      "text": "中国人的海外收入是否要征税，你需要知道这些 https://x.com/nft_hu/status/1945575821353390210",
      "content": "中国人的海外收入是否要征税，你需要知道这些 <a href=\"https://x.com/nft_hu/status/1945575821353390210\" target=\"_blank\" rel=\"noopener\" title=\"https://x.com/nft_hu/status/1945575821353390210\">https://x.com/nft_hu/status/1945575821353390210</a><a class=\"tgme_widget_message_link_preview\" href=\"https://x.com/nft_hu/status/1945575821353390210\" target=\"_blank\" rel=\"noopener\" title=\"今天聊一个和大家都相关的事——“你收到催缴税款的电话/短信了么？他们说海外所得也要收税。”我收到了。我很多朋友也都收到了。咨询了一下我的律师朋友，这件事情原来和我想的不一样，以下是所有中国人/或者长期在中国生活的人，需要知道的事。1⃣️中国实行的是全球征税原则。\">\n  <i class=\"link_preview_right_image\" style=\"background-image:url('/static/45830d4dd6fe989088757059480c7c8b.jpg')\"></i>\n  <div class=\"link_preview_site_name accent_color\" dir=\"auto\">X (formerly Twitter)</div>\n  \n  <div class=\"link_preview_title\" dir=\"auto\">Fiona <i class=\"emoji\" style=\"background-image:url('/static/629c485827daf0b8d569a3c46148faad.png')\"><b>❤️</b></i>&amp; <i class=\"emoji\" style=\"background-image:url('/static/8f22df3f7377963bbd007e61b97b65f0.png')\"><b>✌️</b></i> (@nft_hu) on X</div>\n  <div class=\"link_preview_description\" dir=\"auto\">今天聊一个和大家都相关的事——“你收到催缴税款的电话/短信了么？他们说海外所得也要收税。”<br>我收到了。我很多朋友也都收到了。<br><br>咨询了一下我的律师朋友，这件事情原来和我想的不一样，以下是所有中国人/或者长期在中国生活的人，需要知道的事。<br><br><i class=\"emoji\" style=\"background-image:url('/static/17424555f3e437c96831adfecd4b86be.png')\"><b>1⃣️</b></i>中国实行的是全球征税原则。</div>\n</a>",
      "reactions": [
        {
          "emoji": "⚡",
          "count": "3",
          "isPaid": false
        }
      ]
    },
    {
      "id": "325",
      "title": "希望ETH全力冲",
      "type": "text",
      "datetime": "2025-07-16T19:43:42+00:00",
      "tags": [],
      "text": "希望ETH全力冲",
      "content": "希望ETH全力冲",
      "reactions": [
        {
          "emoji": "❤️",
          "count": "9",
          "isPaid": false
        },
        {
          "emoji": "⚡",
          "count": "2",
          "isPaid": false
        }
      ]
    },
    {
      "id": "324",
      "title": "Pengu 落袋",
      "type": "text",
      "datetime": "2025-07-16T19:40:01+00:00",
      "tags": [],
      "text": "Pengu 落袋",
      "content": "Pengu 落袋",
      "reactions": [
        {
          "emoji": "❤️",
          "count": "6",
          "isPaid": false
        },
        {
          "emoji": "⚡",
          "count": "2",
          "isPaid": false
        }
      ]
    },
    {
      "id": "323",
      "title": "如何无限子弹，答案是股票增发",
      "type": "text",
      "datetime": "2025-07-16T09:23:03+00:00",
      "tags": [],
      "text": "如何无限子弹，答案是股票增发https://x.com/nft_hu/status/1945399036904919354?s=46",
      "content": "如何无限子弹，答案是股票增发<a href=\"https://x.com/nft_hu/status/1945399036904919354?s=46\" target=\"_blank\" rel=\"noopener\" title=\"https://x.com/nft_hu/status/1945399036904919354?s=46\">https://x.com/nft_hu/status/1945399036904919354?s=46</a><a class=\"tgme_widget_message_link_preview\" href=\"https://x.com/nft_hu/status/1945399036904919354?s=46\" target=\"_blank\" rel=\"noopener\" title=\"真的可以无限子弹买ETH么？ SharpLink Gaming不是只融资了4亿，怎么买得了28万个ETH？回答是“Yes and No&quot; 。事实上， $SBET  可不止融资了4亿？5月6月7月，每个月他都有进行募资行为，总金额超过了8亿美金。大胆猜测，这种行为将会继续下去。\">\n  <i class=\"link_preview_right_image\" style=\"background-image:url('/static/b81754a8b77305f8027b751d17a67e59.jpg')\"></i>\n  <div class=\"link_preview_site_name accent_color\" dir=\"auto\">X (formerly Twitter)</div>\n  \n  <div class=\"link_preview_title\" dir=\"auto\">Fiona <i class=\"emoji\" style=\"background-image:url('/static/629c485827daf0b8d569a3c46148faad.png')\"><b>❤️</b></i>&amp; <i class=\"emoji\" style=\"background-image:url('/static/8f22df3f7377963bbd007e61b97b65f0.png')\"><b>✌️</b></i> (@nft_hu) on X</div>\n  <div class=\"link_preview_description\" dir=\"auto\">真的可以无限子弹买ETH么？ SharpLink Gaming不是只融资了4亿，怎么买得了28万个ETH？<br><br>回答是“Yes and No\" 。事实上， $SBET  可不止融资了4亿？<br>5月6月7月，每个月他都有进行募资行为，总金额超过了8亿美金。大胆猜测，这种行为将会继续下去。</div>\n</a>",
      "reactions": [
        {
          "emoji": "❤️",
          "count": "7",
          "isPaid": false
        }
      ]
    },
    {
      "id": "322",
      "title": "Pengu企鹅🐧出游戏了",
      "type": "text",
      "datetime": "2025-07-15T05:40:36+00:00",
      "tags": [],
      "text": "Pengu企鹅🐧出游戏了",
      "content": "Pengu企鹅<i class=\"emoji\"><b>🐧</b></i>出游戏了",
      "reactions": [
        {
          "emoji": "🤔",
          "count": "6",
          "isPaid": false
        },
        {
          "emoji": "🤨",
          "count": "1",
          "isPaid": false
        }
      ]
    },
    {
      "id": "321",
      "title": "币股汇总梳理，哪些美股在囤币",
      "type": "text",
      "datetime": "2025-07-15T04:16:15+00:00",
      "tags": [],
      "text": "币股汇总梳理，哪些美股在囤币https://x.com/nft_hu/status/1944973519567118420?s=46",
      "content": "币股汇总梳理，哪些美股在囤币<a href=\"https://x.com/nft_hu/status/1944973519567118420?s=46\" target=\"_blank\" rel=\"noopener\" title=\"https://x.com/nft_hu/status/1944973519567118420?s=46\">https://x.com/nft_hu/status/1944973519567118420?s=46</a><a class=\"tgme_widget_message_link_preview\" href=\"https://x.com/nft_hu/status/1944973519567118420?s=46\" target=\"_blank\" rel=\"noopener\" title=\"墙内开花墙外香，币不涨币股涨。所谓币股，就是类似微策略 $MSTR 这种以囤币为主要业务的股票，现在在股市掀起了一阵阵热潮。那今天就让我们来盘点一下，现在有哪些热门币股。完整表单另外发，本文只挑选每一个币种的龙头股😉1️⃣MicroStrategy ( $MSTR)拥有比特币：601,550 枚  $BTC\">\n  <i class=\"link_preview_right_image\" style=\"background-image:url('/static/cff9629a7c45b8a23de0ec01267a4369.jpg')\"></i>\n  <div class=\"link_preview_site_name accent_color\" dir=\"auto\">X (formerly Twitter)</div>\n  \n  <div class=\"link_preview_title\" dir=\"auto\">Fiona <i class=\"emoji\" style=\"background-image:url('/static/629c485827daf0b8d569a3c46148faad.png')\"><b>❤️</b></i>&amp; <i class=\"emoji\" style=\"background-image:url('/static/8f22df3f7377963bbd007e61b97b65f0.png')\"><b>✌️</b></i> (@nft_hu) on X</div>\n  <div class=\"link_preview_description\" dir=\"auto\">墙内开花墙外香，币不涨币股涨。<br>所谓币股，就是类似微策略 $MSTR 这种以囤币为主要业务的股票，现在在股市掀起了一阵阵热潮。<br><br>那今天就让我们来盘点一下，现在有哪些热门币股。完整表单另外发，本文只挑选每一个币种的龙头股<i class=\"emoji\" style=\"background-image:url('/static/00a078c58059fb2d251178d727dd3026.png')\"><b>😉</b></i><br><br><i class=\"emoji\" style=\"background-image:url('/static/17424555f3e437c96831adfecd4b86be.png')\"><b>1️⃣</b></i>MicroStrategy ( $MSTR)<br>拥有比特币：601,550 枚  $BTC</div>\n</a>",
      "reactions": [
        {
          "emoji": "👍",
          "count": "6",
          "isPaid": false
        }
      ]
    },
    {
      "id": "320",
      "title": "最近有一家公司，每天像东北人买白菜似的不要钱地买 $ETH ，今天买个1w来个，明天买个1w来个",
      "type": "text",
      "datetime": "2025-07-14T10:16:53+00:00",
      "tags": [],
      "text": "最近有一家公司，每天像东北人买白菜似的不要钱地买 $ETH ，今天买个1w来个，明天买个1w来个。上一次见到这样的架势还是 $MSTR 。截至今天，他持有的 $ETH 已经超过了 21万个，成为了仅次于以太坊的第二大持仓机构（这里是把CEX的持仓排除在外的）走进 SharpLink Gaming https://x.com/nft_hu/status/1944675614293901605",
      "content": "最近有一家公司，每天像东北人买白菜似的不要钱地买 $ETH ，今天买个1w来个，明天买个1w来个。上一次见到这样的架势还是 $MSTR 。<br>截至今天，他持有的 $ETH 已经超过了 21万个，成为了仅次于以太坊的第二大持仓机构（这里是把CEX的持仓排除在外的）<br>走进 SharpLink Gaming <a href=\"https://x.com/nft_hu/status/1944675614293901605\" target=\"_blank\" rel=\"noopener\" title=\"https://x.com/nft_hu/status/1944675614293901605\">https://x.com/nft_hu/status/1944675614293901605</a>",
      "reactions": [
        {
          "emoji": "👍",
          "count": "8",
          "isPaid": false
        },
        {
          "emoji": "❤️",
          "count": "3",
          "isPaid": false
        },
        {
          "emoji": "⚡",
          "count": "1",
          "isPaid": false
        }
      ]
    },
    {
      "id": "319",
      "title": "谁会是下一个Robinhood？谁会复刻他对人性的掌握又抓住一个新兴行业（加密）的发展？ $SOFI 会是下一个传奇么？抑或只是一个昙花一现的叙事？让我们走进这家给散户投10美金给独角兽企业的机会，且会从特朗普的最新政策中受益的公司—— $SOFI ",
      "type": "text",
      "datetime": "2025-07-11T07:41:03+00:00",
      "tags": [],
      "text": "谁会是下一个Robinhood？谁会复刻他对人性的掌握又抓住一个新兴行业（加密）的发展？ $SOFI 会是下一个传奇么？抑或只是一个昙花一现的叙事？让我们走进这家给散户投10美金给独角兽企业的机会，且会从特朗普的最新政策中受益的公司—— $SOFI 。https://x.com/nft_hu/status/1943576092809531649",
      "content": "谁会是下一个Robinhood？谁会复刻他对人性的掌握又抓住一个新兴行业（加密）的发展？<br> $SOFI 会是下一个传奇么？抑或只是一个昙花一现的叙事？<br>让我们走进这家给散户投10美金给独角兽企业的机会，且会从特朗普的最新政策中受益的公司—— $SOFI 。<a href=\"https://x.com/nft_hu/status/1943576092809531649\" target=\"_blank\" rel=\"noopener\" title=\"https://x.com/nft_hu/status/1943576092809531649\">https://x.com/nft_hu/status/1943576092809531649</a>",
      "reactions": [
        {
          "emoji": "👍",
          "count": "6",
          "isPaid": false
        },
        {
          "emoji": "⚡",
          "count": "3",
          "isPaid": false
        },
        {
          "emoji": "❤️",
          "count": "1",
          "isPaid": false
        }
      ]
    }
  ]
}