{
  "meta": {
    "title": "Fiona’s daily news",
    "description": "",
    "avatar": "/static/f3c90989f6b6be7c805d62cd3ec818ed.jpg",
    "totalPosts": 616,
    "totalPages": 31,
    "currentPage": 20,
    "pageSize": 20,
    "hasNextPage": true,
    "hasPrevPage": true,
    "nextPageUrl": "latest-400.json",
    "prevPageUrl": "latest-360.json"
  },
  "data": [
    {
      "id": "257",
      "title": "回看8月清仓，又一次逃顶！",
      "type": "text",
      "datetime": "2024-09-04T01:36:47+00:00",
      "tags": [],
      "text": "回看8月清仓，又一次逃顶！",
      "content": "回看8月清仓，又一次逃顶！",
      "reactions": [
        {
          "emoji": "👍",
          "count": "24",
          "isPaid": false
        },
        {
          "emoji": "❤️",
          "count": "3",
          "isPaid": false
        }
      ]
    },
    {
      "id": "256",
      "title": "Catizen 要来了",
      "type": "text",
      "datetime": "2024-09-03T13:09:01+00:00",
      "tags": [],
      "text": "Catizen 要来了",
      "content": "Catizen 要来了",
      "reactions": [
        {
          "emoji": "❤️",
          "count": "12",
          "isPaid": false
        }
      ]
    },
    {
      "id": "255",
      "title": "Count down 18 days. ",
      "type": "text",
      "datetime": "2024-09-03T13:08:44+00:00",
      "tags": [],
      "text": "Count down 18 days. ",
      "content": "<div class=\"image-list-container image-list-odd\">\n      <button class=\"image-preview-button image-preview-wrap\" popovertarget=\"modal-255-0\" popovertargetaction=\"show\">\n        <img src=\"/static/a42632a3a0da34a028187a337285fa26.jpg\" alt=\"Count down 18 days. \" loading=\"lazy\" />\n      </button>\n      <button class=\"image-preview-button modal\" id=\"modal-255-0\" popovertarget=\"modal-255-0\" popovertargetaction=\"hide\" popover>\n        <img class=\"modal-img\" src=\"/static/a42632a3a0da34a028187a337285fa26.jpg\" alt=\"Count down 18 days. \" loading=\"lazy\" />\n      </button>\n    </div>Count down 18 days. <img class=\"tg-emoji\" src=\"/static/a7329fd542f2592e6666db28362fdb01.webp\" alt=\"\" loading=\"lazy\">",
      "reactions": []
    },
    {
      "id": "254",
      "title": "9月如预期下跌，等待好的机会",
      "type": "text",
      "datetime": "2024-09-02T02:31:10+00:00",
      "tags": [],
      "text": "9月如预期下跌，等待好的机会",
      "content": "9月如预期下跌，等待好的机会",
      "reactions": [
        {
          "emoji": "👍",
          "count": "37",
          "isPaid": false
        },
        {
          "emoji": "❤️",
          "count": "3",
          "isPaid": false
        },
        {
          "emoji": "🔥",
          "count": "2",
          "isPaid": false
        }
      ]
    },
    {
      "id": "253",
      "title": "项目联合交易所作恶，$SLF 代幣增發",
      "type": "text",
      "datetime": "2024-09-01T05:58:46+00:00",
      "tags": [],
      "text": "项目联合交易所作恶，$SLF 代幣增發。Binance 1:1 兌換變相稀釋了我們的代幣。https://x.com/nft_hu/status/1830122392812994791?s=46",
      "content": "项目联合交易所作恶，$SLF 代幣增發。Binance 1:1 兌換變相稀釋了我們的代幣。<a href=\"https://x.com/nft_hu/status/1830122392812994791?s=46\" target=\"_blank\" rel=\"noopener\" title=\"https://x.com/nft_hu/status/1830122392812994791?s=46\">https://x.com/nft_hu/status/1830122392812994791?s=46</a>",
      "reactions": [
        {
          "emoji": "👎",
          "count": "1",
          "isPaid": false
        }
      ]
    },
    {
      "id": "252",
      "title": "欢迎大家来到9月，今年的9月还会是糟糕行情么？",
      "type": "text",
      "datetime": "2024-08-31T15:47:14+00:00",
      "tags": [],
      "text": "欢迎大家来到9月，今年的9月还会是糟糕行情么？https://x.com/nft_hu/status/1828422337735340460?s=46",
      "content": "欢迎大家来到9月，今年的9月还会是糟糕行情么？<br><br><a href=\"https://x.com/nft_hu/status/1828422337735340460?s=46\" target=\"_blank\" rel=\"noopener\" title=\"https://x.com/nft_hu/status/1828422337735340460?s=46\">https://x.com/nft_hu/status/1828422337735340460?s=46</a><a class=\"tgme_widget_message_link_preview\" href=\"https://x.com/nft_hu/status/1828422337735340460?s=46\" target=\"_blank\" rel=\"noopener\" title=\"为何我最近几天有点风吹草动就卖卖卖，因为时间已经8月27，逼近9月。个人最近的操作目标不是收益最大化，而是最大化保全胜利果实，尽量不会撤。出于对9月魔咒🪄的敬畏之心，我卖了。什么是九月魔咒？逢九月就跌是真的么？这背后的原因又是如何呢？今年还会9月魔咒么？\">\n  <i class=\"link_preview_right_image\" style=\"background-image:url('/static/dda799389bc8930d80fe0488fbc1e689.jpg')\"></i>\n  <div class=\"link_preview_site_name accent_color\" dir=\"auto\">X (formerly Twitter)</div>\n  \n  <div class=\"link_preview_title\" dir=\"auto\">Fiona <i class=\"emoji\" style=\"background-image:url('/static/629c485827daf0b8d569a3c46148faad.png')\"><b>❤️</b></i>&amp; <i class=\"emoji\" style=\"background-image:url('/static/8f22df3f7377963bbd007e61b97b65f0.png')\"><b>✌️</b></i> (@nft_hu) on X</div>\n  <div class=\"link_preview_description\" dir=\"auto\">为何我最近几天有点风吹草动就卖卖卖，因为时间已经8月27，逼近9月。个人最近的操作目标不是收益最大化，而是最大化保全胜利果实，尽量不会撤。<br><br>出于对9月魔咒<i class=\"emoji\" style=\"background-image:url('/static/6aeacda8ec3d54f15505be04c9e96bb1.png')\"><b>🪄</b></i>的敬畏之心，我卖了。<br><br>什么是九月魔咒？逢九月就跌是真的么？这背后的原因又是如何呢？今年还会9月魔咒么？</div>\n</a>",
      "reactions": [
        {
          "emoji": "👍",
          "count": "5",
          "isPaid": false
        },
        {
          "emoji": "❤️",
          "count": "2",
          "isPaid": false
        }
      ]
    },
    {
      "id": "251",
      "title": "值得一读，TG收入的40%来自于加密业务，他们持有的Ton的价值超过了他们持有的现金",
      "type": "text",
      "datetime": "2024-08-31T09:52:09+00:00",
      "tags": [],
      "text": "值得一读，TG收入的40%来自于加密业务，他们持有的Ton的价值超过了他们持有的现金。好一个“空手套白狼” https://x.com/defiignas/status/1829812495739146717?s=46",
      "content": "值得一读，TG收入的40%来自于加密业务，他们持有的Ton的价值超过了他们持有的现金。<br><br>好一个“空手套白狼” <a href=\"https://x.com/defiignas/status/1829812495739146717?s=46\" target=\"_blank\" rel=\"noopener\" title=\"https://x.com/defiignas/status/1829812495739146717?s=46\">https://x.com/defiignas/status/1829812495739146717?s=46</a>",
      "reactions": [
        {
          "emoji": "👍",
          "count": "7",
          "isPaid": false
        }
      ]
    },
    {
      "id": "250",
      "title": "和sol maxi的我做个正式告别：",
      "type": "text",
      "datetime": "2024-08-30T02:56:42+00:00",
      "tags": [],
      "text": "和sol maxi的我做个正式告别：https://x.com/nft_hu/status/1829352158707535929",
      "content": "和sol maxi的我做个正式告别：<a href=\"https://x.com/nft_hu/status/1829352158707535929\" target=\"_blank\" rel=\"noopener\" title=\"https://x.com/nft_hu/status/1829352158707535929\">https://x.com/nft_hu/status/1829352158707535929</a>",
      "reactions": [
        {
          "emoji": "❤️",
          "count": "18",
          "isPaid": false
        },
        {
          "emoji": "👍",
          "count": "10",
          "isPaid": false
        },
        {
          "emoji": "🥴",
          "count": "3",
          "isPaid": false
        }
      ]
    },
    {
      "id": "248",
      "title": "为何超预期还是下跌，我对英伟达财报的理解",
      "type": "text",
      "datetime": "2024-08-28T21:52:07+00:00",
      "tags": [],
      "text": "为何超预期还是下跌，我对英伟达财报的理解https://x.com/nft_hu/status/1828913223732736296?s=46",
      "content": "为何超预期还是下跌，我对英伟达财报的理解<br><br><a href=\"https://x.com/nft_hu/status/1828913223732736296?s=46\" target=\"_blank\" rel=\"noopener\" title=\"https://x.com/nft_hu/status/1828913223732736296?s=46\">https://x.com/nft_hu/status/1828913223732736296?s=46</a><a class=\"tgme_widget_message_link_preview\" href=\"https://x.com/nft_hu/status/1828913223732736296?s=46\" target=\"_blank\" rel=\"noopener\" title=\"终于等来了英伟达 $NVDA 财报公布的历史性时刻，明晃晃的大字写着超预期，但是为什么超预期了还是引发盘后下跌？是大家的真实预期不是这个预期？还是财报里另含其他雷点？为什么这家3万亿的公司还可以随时上下5个点波动，引发市场隐忧？本文一起来看看财报数字背后的故事。\">\n  <i class=\"link_preview_right_image\" style=\"background-image:url('/static/fcfb83fbc742768161a4a42607d0b0eb.jpg')\"></i>\n  <div class=\"link_preview_site_name accent_color\" dir=\"auto\">X (formerly Twitter)</div>\n  \n  <div class=\"link_preview_title\" dir=\"auto\">Fiona <i class=\"emoji\" style=\"background-image:url('/static/629c485827daf0b8d569a3c46148faad.png')\"><b>❤️</b></i>&amp; <i class=\"emoji\" style=\"background-image:url('/static/8f22df3f7377963bbd007e61b97b65f0.png')\"><b>✌️</b></i> (@nft_hu) on X</div>\n  <div class=\"link_preview_description\" dir=\"auto\">终于等来了英伟达 $NVDA 财报公布的历史性时刻，明晃晃的大字写着超预期，但是为什么超预期了还是引发盘后下跌？<br><br>是大家的真实预期不是这个预期？还是财报里另含其他雷点？<br><br>为什么这家3万亿的公司还可以随时上下5个点波动，引发市场隐忧？<br><br>本文一起来看看财报数字背后的故事。</div>\n</a>",
      "reactions": [
        {
          "emoji": "❤️",
          "count": "15",
          "isPaid": false
        }
      ]
    },
    {
      "id": "247",
      "title": "俄新社：Telegram创始人Pavel Durov已被带上法庭BlockBeats 消息，8 月 28 日，据俄新社报道，Telegram 创始人兼首席执行官 Pavel Durov 已于世界标准时间下午 1 点左右被带到法庭",
      "type": "text",
      "datetime": "2024-08-28T14:20:39+00:00",
      "tags": [],
      "text": "俄新社：Telegram创始人Pavel Durov已被带上法庭BlockBeats 消息，8 月 28 日，据俄新社报道，Telegram 创始人兼首席执行官 Pavel Durov 已于世界标准时间下午 1 点左右被带到法庭。俄罗斯新闻社记者当天早些时候报道称，两辆闪着警灯的汽车高速驶离位于巴黎郊区的国家反诈骗局大楼，可能押送的是 Pavel Durov。原文链接 https://m.theblockbeats.info/flash/261492",
      "content": "俄新社：Telegram创始人Pavel Durov已被带上法庭<br><br>BlockBeats 消息，8 月 28 日，据俄新社报道，Telegram 创始人兼首席执行官 Pavel Durov 已于世界标准时间下午 1 点左右被带到法庭。俄罗斯新闻社记者当天早些时候报道称，两辆闪着警灯的汽车高速驶离位于巴黎郊区的国家反诈骗局大楼，可能押送的是 Pavel Durov。<br><br>原文链接 <a href=\"https://m.theblockbeats.info/flash/261492\" target=\"_blank\" rel=\"noopener\" title=\"https://m.theblockbeats.info/flash/261492\">https://m.theblockbeats.info/flash/261492</a><a class=\"tgme_widget_message_link_preview\" href=\"https://m.theblockbeats.info/flash/261492\" target=\"_blank\" rel=\"noopener\" title=\"BlockBeats 消息，8 月 28 日，据俄新社报道，Telegram 创始人兼首席执行官 Pavel Durov 已于世界标准时间下午 1 点左右被带到法庭。俄罗斯新闻社记者当天早些时候报道称，两辆闪着警灯的汽车高速驶离位于巴黎郊区的国家反诈骗局大楼，可能押送的是 Pavel Durov。\">\n  <i class=\"link_preview_right_image\" style=\"background-image:url('/static/8a6b9329a506f6a66c81548ce5d4c918.jpg')\"></i>\n  <div class=\"link_preview_site_name accent_color\" dir=\"auto\">BlockBeats</div>\n  \n  <div class=\"link_preview_title\" dir=\"auto\">俄新社：Telegram创始人Pavel Durov已被带上法庭</div>\n  <div class=\"link_preview_description\" dir=\"auto\">BlockBeats 消息，8 月 28 日，据俄新社报道，Telegram 创始人兼首席执行官 Pavel Durov 已于世界标准时间下午 1 点左右被带到法庭。俄罗斯新闻社记者当天早些时候报道称，两辆闪着警灯的汽车高速驶离位于巴黎郊区的国家反诈骗局大楼，可能押送的是 Pavel Durov。</div>\n</a>",
      "reactions": [
        {
          "emoji": "❤️",
          "count": "2",
          "isPaid": false
        },
        {
          "emoji": "👍",
          "count": "1",
          "isPaid": false
        }
      ]
    },
    {
      "id": "246",
      "title": "今晚到明天，应该波动巨大",
      "type": "text",
      "datetime": "2024-08-28T14:20:37+00:00",
      "tags": [],
      "text": "今晚到明天，应该波动巨大",
      "content": "今晚到明天，应该波动巨大",
      "reactions": [
        {
          "emoji": "🔥",
          "count": "11",
          "isPaid": false
        }
      ]
    },
    {
      "id": "245",
      "title": "Maker品牌重塑为Sky Protocol，并将推出原生治理代币SKY",
      "type": "text",
      "datetime": "2024-08-27T12:38:45+00:00",
      "tags": [],
      "text": "Maker品牌重塑为Sky Protocol，并将推出原生治理代币SKY。 看了下有点算变相拆分MKR，作为更名的一部分，Maker 将全球最大的去中心化稳定币 Dai（DAI）更名为 USDS。该协议还推出了 Sky（SKY）原生治理代币，MakerDAO 联合创始人 Rune Christensen 称此次更名是迎接「DeFi 下一次进化」的一步。MKR 持有者可以将其 MKR 升级为 SKY，SKY 也可以转换回 MKR。升级是可选的。用户在升级时每枚 MKR 可以换得 24,000 枚 SKY",
      "content": "Maker品牌重塑为Sky Protocol，并将推出原生治理代币SKY。 看了下有点算变相拆分MKR，作为更名的一部分，Maker 将全球最大的去中心化稳定币 Dai（DAI）更名为 USDS。<br><br>该协议还推出了 Sky（SKY）原生治理代币，MakerDAO 联合创始人 Rune Christensen 称此次更名是迎接「DeFi 下一次进化」的一步。MKR 持有者可以将其 MKR 升级为 SKY，SKY 也可以转换回 MKR。升级是可选的。用户在升级时每枚 MKR 可以换得 24,000 枚 SKY",
      "reactions": [
        {
          "emoji": "👍",
          "count": "8",
          "isPaid": false
        },
        {
          "emoji": "🤣",
          "count": "1",
          "isPaid": false
        }
      ]
    },
    {
      "id": "244",
      "title": "脱水完成，满手U，虽然没有卖在最高点，但是8月半仓操作，整体仓位赚了40%，其实对自己挺满意的",
      "type": "text",
      "datetime": "2024-08-27T11:28:17+00:00",
      "tags": [],
      "text": "脱水完成，满手U，虽然没有卖在最高点，但是8月半仓操作，整体仓位赚了40%，其实对自己挺满意的。回到了三月的ATH，这次要守住他。",
      "content": "脱水完成，满手U，虽然没有卖在最高点，但是8月半仓操作，整体仓位赚了40%，其实对自己挺满意的。<br><br>回到了三月的ATH，这次要守住他。",
      "reactions": [
        {
          "emoji": "❤️",
          "count": "35",
          "isPaid": false
        },
        {
          "emoji": "👍",
          "count": "18",
          "isPaid": false
        },
        {
          "emoji": "👏",
          "count": "4",
          "isPaid": false
        }
      ]
    },
    {
      "id": "243",
      "title": "9月魔咒不知道今年是不是一樣",
      "type": "text",
      "datetime": "2024-08-27T10:39:05+00:00",
      "tags": [],
      "text": "9月魔咒不知道今年是不是一樣",
      "content": "9月魔咒不知道今年是不是一樣",
      "reactions": [
        {
          "emoji": "🤷‍♂",
          "count": "7",
          "isPaid": false
        },
        {
          "emoji": "🤡",
          "count": "1",
          "isPaid": false
        }
      ]
    },
    {
      "id": "242",
      "title": "",
      "type": "text",
      "datetime": "2024-08-26T18:21:22+00:00",
      "tags": [],
      "text": "https://x.com/nft_hu/status/1828135430468050963?s=46",
      "content": "<a href=\"https://x.com/nft_hu/status/1828135430468050963?s=46\" target=\"_blank\" rel=\"noopener\" title=\"https://x.com/nft_hu/status/1828135430468050963?s=46\">https://x.com/nft_hu/status/1828135430468050963?s=46</a><a class=\"tgme_widget_message_link_preview\" href=\"https://x.com/nft_hu/status/1828135430468050963?s=46\" target=\"_blank\" rel=\"noopener\" title=\"今天的跌，部分在准备之中。周末减仓了一些 $BNB ，现金仓位来到了7成。目前的持仓主要是 $SOL $TRB $FRONT 和今天新买的 $DOGS 。这里主要说一下从 $BNB 换到SOL的原因，SOL/BNB汇率从三天前开始走强，BNB lauchpool阶段性结束，加上TG创始人被捕的大背景，我选择把仓位挪回SOL。\">\n  <i class=\"link_preview_right_image\" style=\"background-image:url('/static/e57ee41406aedce3ca63608389612b9e.jpg')\"></i>\n  <div class=\"link_preview_site_name accent_color\" dir=\"auto\">X (formerly Twitter)</div>\n  \n  <div class=\"link_preview_title\" dir=\"auto\">Fiona <i class=\"emoji\" style=\"background-image:url('/static/629c485827daf0b8d569a3c46148faad.png')\"><b>❤️</b></i>&amp; <i class=\"emoji\" style=\"background-image:url('/static/8f22df3f7377963bbd007e61b97b65f0.png')\"><b>✌️</b></i> (@nft_hu) on X</div>\n  <div class=\"link_preview_description\" dir=\"auto\">今天的跌，部分在准备之中。周末减仓了一些 $BNB ，现金仓位来到了7成。<br><br>目前的持仓主要是 $SOL $TRB $FRONT 和今天新买的 $DOGS 。<br><br>这里主要说一下从 $BNB 换到SOL的原因，SOL/BNB汇率从三天前开始走强，BNB lauchpool阶段性结束，加上TG创始人被捕的大背景，我选择把仓位挪回SOL。</div>\n</a>",
      "reactions": [
        {
          "emoji": "❤️",
          "count": "14",
          "isPaid": false
        }
      ]
    },
    {
      "id": "241",
      "title": "BNB 止盈一半",
      "type": "text",
      "datetime": "2024-08-25T03:07:21+00:00",
      "tags": [],
      "text": "BNB 止盈一半",
      "content": "BNB 止盈一半",
      "reactions": [
        {
          "emoji": "❤️",
          "count": "18",
          "isPaid": false
        }
      ]
    },
    {
      "id": "240",
      "title": "降息周期之下，美股会怎么走？让我们来回看一下历史：",
      "type": "text",
      "datetime": "2024-08-24T14:08:54+00:00",
      "tags": [],
      "text": "降息周期之下，美股会怎么走？让我们来回看一下历史：https://x.com/nft_hu/status/1827344848997044362",
      "content": "降息周期之下，美股会怎么走？让我们来回看一下历史：<br><a href=\"https://x.com/nft_hu/status/1827344848997044362\" target=\"_blank\" rel=\"noopener\" title=\"https://x.com/nft_hu/status/1827344848997044362\">https://x.com/nft_hu/status/1827344848997044362</a>",
      "reactions": [
        {
          "emoji": "❤️",
          "count": "11",
          "isPaid": false
        }
      ]
    },
    {
      "id": "239",
      "title": "BTC64k BNB 592!",
      "type": "text",
      "datetime": "2024-08-23T23:31:59+00:00",
      "tags": [],
      "text": "BTC64k BNB 592!",
      "content": "BTC64k BNB 592!",
      "reactions": [
        {
          "emoji": "👍",
          "count": "19",
          "isPaid": false
        },
        {
          "emoji": "❤️",
          "count": "4",
          "isPaid": false
        },
        {
          "emoji": "🤮",
          "count": "2",
          "isPaid": false
        },
        {
          "emoji": "💊",
          "count": "1",
          "isPaid": false
        }
      ]
    },
    {
      "id": "237",
      "title": "鲍师傅给力！鲍威尔发出迄今为止最强烈​​的降息信号金十数据8月23日讯，据华尔街日报：美联储主席鲍威尔发出迄今为止最强烈​​的降息信号，其表示美联储打算采取行动，避免美国劳动力市场进一步疲软",
      "type": "text",
      "datetime": "2024-08-23T14:18:15+00:00",
      "tags": [],
      "text": "鲍师傅给力！鲍威尔发出迄今为止最强烈​​的降息信号金十数据8月23日讯，据华尔街日报：美联储主席鲍威尔发出迄今为止最强烈​​的降息信号，其表示美联储打算采取行动，避免美国劳动力市场进一步疲软。互换市场保持稳定，预计美联储年末前将有近100个基点的降息幅度。加仓 TLT TMFhttps://x.com/nft_hu/status/1826987118452994418?s=46",
      "content": "鲍师傅给力！<br><br>鲍威尔发出迄今为止最强烈​​的降息信号<br>金十数据8月23日讯，据华尔街日报：美联储主席鲍威尔发出迄今为止最强烈​​的降息信号，其表示美联储打算采取行动，避免美国劳动力市场进一步疲软。<br><br>互换市场保持稳定，预计美联储年末前将有近100个基点的降息幅度。<br><br>加仓 TLT TMF<br><a href=\"https://x.com/nft_hu/status/1826987118452994418?s=46\" target=\"_blank\" rel=\"noopener\" title=\"https://x.com/nft_hu/status/1826987118452994418?s=46\">https://x.com/nft_hu/status/1826987118452994418?s=46</a>",
      "reactions": [
        {
          "emoji": "👍",
          "count": "13",
          "isPaid": false
        },
        {
          "emoji": "❤️",
          "count": "2",
          "isPaid": false
        }
      ]
    },
    {
      "id": "236",
      "title": "【数据：AAVE 月涨幅 45%，在 Top 100 代币中排名第 1】Foresight News 消息，据 Bitget 行情数据，DeFi 借贷协议代币 AAVE 月涨幅 45%，在市值最大的 100 个代币中排名第 1",
      "type": "text",
      "datetime": "2024-08-23T07:30:39+00:00",
      "tags": [],
      "text": "【数据：AAVE 月涨幅 45%，在 Top 100 代币中排名第 1】Foresight News 消息，据 Bitget 行情数据，DeFi 借贷协议代币 AAVE 月涨幅 45%，在市值最大的 100 个代币中排名第 1。可惜后来没有买回来，但是也证明了选币眼光",
      "content": "<a class=\"tgme_widget_message_reply user-color-default\" href=\"/posts/195\" \"=\"\"><blockquote><small>\n<div class=\"tgme_widget_message_author accent_color\">\n  <span class=\"tgme_widget_message_author_name\" dir=\"auto\">Fiona’s daily news</span>\n</div>\n<div class=\"tgme_widget_message_text js-message_reply_text\" dir=\"auto\">买了一点 AAVE 弱市场里的强势币</div>\n</small></blockquote></a>【数据：AAVE 月涨幅 45%，在 Top 100 代币中排名第 1】<br>Foresight News 消息，据 Bitget 行情数据，DeFi 借贷协议代币 AAVE 月涨幅 45%，在市值最大的 100 个代币中排名第 1。<br>可惜后来没有买回来，但是也证明了选币眼光",
      "reactions": [
        {
          "emoji": "🫡",
          "count": "15",
          "isPaid": false
        },
        {
          "emoji": "❤️",
          "count": "5",
          "isPaid": false
        }
      ]
    }
  ]
}